{
  "prefix": "dark4",
  "version": "3.54.6",
  "etat": "stable",
  "compatibilite": "[3.0.0;3.2.*]",
  "documentation": "adress documentation du themes",
  "schema": 2,
  "credit":  "null",
  "licence": "null",
  "nom": "Dark - 4",
  "auteurs": {
    "0": {
      "name": "Baptiste1",
      "email": "baptiste1@outlook.fr",
      "site": "baptiste.com"
    },
    "1" : {
      "name": "Baptiste1",
      "email": "baptiste1@outlook.fr",
      "site": "baptiste.com"
    }
  }

}